<svg width="26" height="28" viewBox="0 0 26 28" fill="none" xmlns="http://www.w3.org/2000/svg">
<g clip-path="url(#clip0)">
<path d="M23.2447 11.7783C25.9351 7.87579 25.3385 7.80268 26 6.58337H20.8443C20.8443 6.58337 20.4779 7.94635 20.3661 8.19034C19.3758 10.3482 17.1547 13.5859 15.8114 13.9168C14.4887 14.2429 14.6643 10.8938 14.7458 9.44301C14.8226 8.09831 14.8095 7.62776 14.7726 7.39546C14.7186 7.05605 14.4528 6.80845 14.1339 6.7653C13.4763 6.67604 12.2831 6.54979 10.9469 6.6161L9.75159 6.65861C10.2229 7.78822 10.5413 7.44201 10.7148 8.74887C10.9108 10.2789 10.8337 14.0018 9.42726 14.0018C7.17265 14.0018 4.64192 6.74681 4.56139 6.58337H0L0.417358 7.70236C3.78102 16.7244 7.98793 20.903 13.7439 21.2505L14.4929 21.2737L14.5464 20.4943C14.6274 19.2907 15.1909 17.5582 16.1905 17.5582C17.6673 17.5582 18.094 18.0189 19.068 19.3084C20.0044 20.5447 20.6497 21.2737 22.1609 21.2737H26L25.4525 20.0941C24.5976 18.2551 22.8827 16.6785 22.213 15.764C21.9704 15.4197 21.7316 14.8754 21.9788 14.2169C22.1809 13.6435 22.7827 12.4476 23.2447 11.7783Z" fill="white"/>
</g>
<defs>
<clipPath id="clip0">
<rect width="26" height="27.8571" fill="white"/>
</clipPath>
</defs>
</svg>
